{
	"fullName": "Nathanaël Marion",
	"mail": "nathanael.marion@gmail.com",
	"gitlab": "https://gitlab.com/Natrium729",
	"itchio": "https://natrium729.itch.io/",
	"linkedin" : "https://www.linkedin.com/in/nathana%C3%ABl-marion-651a7aa3/",
	"resume": "https://natrium729.gitlab.io/cv/",
	"twitter": "natrium729"
}
